Test_data/Data_1_3V.csv

Record Length,2000,Points,-3.20000005,2.2800002,,Record Length,2000,Points,-3.20000005,-1.2400001,
Sample Interval,3.20000015E-3,s,-3.19679999,2.2800002,,Sample Interval,3.20000015E-3,s,-3.19679999,-1.1600001,
Trigger Point,999.999967404,Samples,-3.19359994,2.2800002,,Trigger Point,999.999967404,Samples,-3.19359994,-1.2400001,
,,,-3.19040012,2.2800002,,,,,-3.19040012,-1.3200001,
,,,-3.18720007,2.3200002,,,,,-3.18720007,-1.2000000,
,,,-3.18400002,2.2800002,,,,,-3.18400002,-1.2000000,
Source,CH1,,-3.18079996,2.3200002,,Source,CH2,,-3.18079996,-1.1600001,
Vertical Units,V,,-3.17760015,2.3200002,,Vertical Units,V,,-3.17760015,-1.2400001,
Vertical Scale,1.0000001,,-3.17440009,2.3200002,,Vertical Scale,1.0000001,,-3.17440009,-1.2000000,
Vertical Offset,0,,-3.17120004,2.3200002,,Vertical Offset,0,,-3.17120004,-1.2400001,
Horizontal Units,s,,-3.16799998,2.3200002,,Horizontal Units,s,,-3.16799998,-1.1600001,
Horizontal Scale,640.000030398E-3,,-3.16479993,2.3200002,,Horizontal Scale,640.000030398E-3,,-3.16479993,-1.2000000,
Pt Fmt,Y,,-3.16160011,2.3200002,,Pt Fmt,Y,,-3.16160011,-1.2400001,
Yzero,0.0,,-3.15840006,2.3600001,,Yzero,0.0,,-3.15840006,-1.2400001,
,,,-3.15520000,2.3200002,,,,,-3.15520000,-1.2400001,
,,,-3.15199995,2.3600001,,,,,-3.15199995,-1.2000000,
Note,TBS2102B - 12:12:10 PM   10/29/2021,,-3.14880013,2.3600001,,Note,TBS2102B - 12:12:10 PM   10/29/2021,,-3.14880013,-1.2000000,
,,,-3.14560008,2.3600001,,,,,-3.14560008,-1.1200001,
,,,-3.14240003,2.4000001,,,,,-3.14240003,-1.2800001,
,,,-3.13919997,2.4000001,,,,,-3.13919997,-1.1600001,
,,,-3.13600016,2.4000001,,,,,-3.13600016,-1.2000000,
,,,-3.13280010,2.4000001,,,,,-3.13280010,-1.2400001,
,,,-3.12960005,2.4000001,,,,,-3.12960005,-1.2400001,
,,,-3.12639999,2.4000001,,,,,-3.12639999,-1.2000000,
,,,-3.12319994,2.4000001,,,,,-3.12319994,-1.2000000,
,,,-3.12000012,2.4400001,,,,,-3.12000012,-1.2000000,
,,,-3.11680007,2.4400001,,,,,-3.11680007,-1.2400001,
,,,-3.11360002,2.4400001,,,,,-3.11360002,-1.2400001,
,,,-3.11039996,2.4400001,,,,,-3.11039996,-1.1600001,
,,,-3.10720015,2.4400001,,,,,-3.10720015,-1.2000000,
,,,-3.10400009,2.4800003,,,,,-3.10400009,-1.1600001,
,,,-3.10080004,2.4400001,,,,,-3.10080004,-1.1600001,
,,,-3.09759998,2.4800003,,,,,-3.09759998,-1.2400001,
,,,-3.09439993,2.4800003,,,,,-3.09439993,-1.2400001,
,,,-3.09120011,2.4800003,,,,,-3.09120011,-1.2400001,
,,,-3.08800006,2.4800003,,,,,-3.08800006,-1.2400001,
,,,-3.08480000,2.4800003,,,,,-3.08480000,-1.1200001,
,,,-3.08159995,2.5200002,,,,,-3.08159995,-1.2400001,
,,,-3.07840014,2.4800003,,,,,-3.07840014,-1.1600001,
,,,-3.07520008,2.4800003,,,,,-3.07520008,-1.2000000,
,,,-3.07200003,2.5200002,,,,,-3.07200003,-1.2000000,
,,,-3.06879997,2.5200002,,,,,-3.06879997,-1.2400001,
,,,-3.06560016,2.4800003,,,,,-3.06560016,-1.2000000,
,,,-3.06240010,2.5200002,,,,,-3.06240010,-1.2400001,
,,,-3.05920005,2.5200002,,,,,-3.05920005,-1.1600001,
,,,-3.05599999,2.5200002,,,,,-3.05599999,-1.3200001,
,,,-3.05279994,2.5600002,,,,,-3.05279994,-1.2000000,
,,,-3.04960012,2.5600002,,,,,-3.04960012,-1.2400001,
,,,-3.04640007,2.5200002,,,,,-3.04640007,-1.2800001,
,,,-3.04320002,2.5600002,,,,,-3.04320002,-1.2400001,
,,,-3.03999996,2.5600002,,,,,-3.03999996,-1.2400001,
,,,-3.03680015,2.5600002,,,,,-3.03680015,-1.2000000,
,,,-3.03360009,2.6000001,,,,,-3.03360009,-1.2800001,
,,,-3.03040004,2.6000001,,,,,-3.03040004,-1.2400001,
,,,-3.02719998,2.6000001,,,,,-3.02719998,-1.2400001,
,,,-3.02399993,2.6000001,,,,,-3.02399993,-1.1600001,
,,,-3.02080011,2.6000001,,,,,-3.02080011,-1.2000000,
,,,-3.01760006,2.6000001,,,,,-3.01760006,-1.2800001,
,,,-3.01440001,2.6000001,,,,,-3.01440001,-1.1600001,
,,,-3.01119995,2.6000001,,,,,-3.01119995,1.4000001,
,,,-3.00800014,2.6000001,,,,,-3.00800014,1.4400001,
,,,-3.00480008,2.6400001,,,,,-3.00480008,1.4000001,
,,,-3.00160003,2.6000001,,,,,-3.00160003,1.3600001,
,,,-2.99839997,2.6400001,,,,,-2.99839997,1.4400001,
,,,-2.99520016,2.6400001,,,,,-2.99520016,1.3600001,
,,,-2.99200010,2.6400001,,,,,-2.99200010,1.3600001,
,,,-2.98880005,2.6400001,,,,,-2.98880005,1.4000001,
,,,-2.98559999,2.6400001,,,,,-2.98559999,1.4000001,
,,,-2.98239994,2.6000001,,,,,-2.98239994,1.4800001,
,,,-2.97920012,2.6400001,,,,,-2.97920012,1.3200001,
,,,-2.97600007,2.6000001,,,,,-2.97600007,1.3600001,
,,,-2.97280002,2.6000001,,,,,-2.97280002,1.3200001,
,,,-2.96959996,2.6000001,,,,,-2.96959996,1.4000001,
,,,-2.96640015,2.6000001,,,,,-2.96640015,1.3600001,
,,,-2.96320009,2.6000001,,,,,-2.96320009,1.3600001,
,,,-2.96000004,2.6000001,,,,,-2.96000004,1.3600001,
,,,-2.95679998,2.6000001,,,,,-2.95679998,1.4000001,
,,,-2.95359993,2.6000001,,,,,-2.95359993,1.3600001,
,,,-2.95040011,2.5600002,,,,,-2.95040011,1.3200001,
,,,-2.94720006,2.5600002,,,,,-2.94720006,1.4400001,
,,,-2.94400001,2.5600002,,,,,-2.94400001,1.4000001,
,,,-2.94079995,2.5200002,,,,,-2.94079995,1.3600001,
,,,-2.93760014,2.5200002,,,,,-2.93760014,1.3600001,
,,,-2.93440008,2.5200002,,,,,-2.93440008,1.3600001,
,,,-2.93120003,2.5600002,,,,,-2.93120003,1.4000001,
,,,-2.92799997,2.5600002,,,,,-2.92799997,1.4800001,
,,,-2.92479992,2.5200002,,,,,-2.92479992,1.3600001,
,,,-2.92160010,2.5200002,,,,,-2.92160010,1.4000001,
,,,-2.91840005,2.4800003,,,,,-2.91840005,1.3600001,
,,,-2.91520000,2.5200002,,,,,-2.91520000,1.4000001,
,,,-2.91199994,2.4800003,,,,,-2.91199994,1.3600001,
,,,-2.90880013,2.4800003,,,,,-2.90880013,1.4000001,
,,,-2.90560007,2.4800003,,,,,-2.90560007,1.4000001,
,,,-2.90240002,2.5200002,,,,,-2.90240002,1.4000001,
,,,-2.89919996,2.4400001,,,,,-2.89919996,1.3200001,
,,,-2.89600015,2.4800003,,,,,-2.89600015,1.4000001,
,,,-2.89280009,2.4800003,,,,,-2.89280009,1.3600001,
,,,-2.88960004,2.4400001,,,,,-2.88960004,1.3600001,
,,,-2.88639998,2.4400001,,,,,-2.88639998,1.4000001,
,,,-2.88319993,2.4400001,,,,,-2.88319993,1.4000001,
,,,-2.88000011,2.4400001,,,,,-2.88000011,1.4400001,
,,,-2.87680006,2.4400001,,,,,-2.87680006,1.4400001,
,,,-2.87360001,2.4400001,,,,,-2.87360001,1.4800001,
,,,-2.87039995,2.4400001,,,,,-2.87039995,1.4000001,
,,,-2.86720014,2.4000001,,,,,-2.86720014,1.3600001,
,,,-2.86400008,2.4000001,,,,,-2.86400008,1.4000001,
,,,-2.86080003,2.4000001,,,,,-2.86080003,1.3600001,
,,,-2.85759997,2.4000001,,,,,-2.85759997,1.4000001,
,,,-2.85439992,2.4000001,,,,,-2.85439992,1.3600001,
,,,-2.85120010,2.3600001,,,,,-2.85120010,1.4000001,
,,,-2.84800005,2.4000001,,,,,-2.84800005,1.4000001,
,,,-2.84480000,2.3600001,,,,,-2.84480000,1.3600001,
,,,-2.84159994,2.3600001,,,,,-2.84159994,1.3600001,
,,,-2.83840013,2.3600001,,,,,-2.83840013,1.3200001,
,,,-2.83520007,2.3600001,,,,,-2.83520007,1.3600001,
,,,-2.83200002,2.3600001,,,,,-2.83200002,1.3600001,
,,,-2.82879996,2.3200002,,,,,-2.82879996,1.3600001,
,,,-2.82560015,2.3200002,,,,,-2.82560015,1.3600001,
,,,-2.82240009,2.3200002,,,,,-2.82240009,1.4000001,
,,,-2.81920004,2.3200002,,,,,-2.81920004,1.3600001,
,,,-2.81599998,2.3200002,,,,,-2.81599998,1.3200001,
,,,-2.81279993,2.3200002,,,,,-2.81279993,1.3600001,
,,,-2.80960011,2.2800002,,,,,-2.80960011,1.4000001,
,,,-2.80640006,2.2800002,,,,,-2.80640006,1.4000001,
,,,-2.80320001,2.2800002,,,,,-2.80320001,1.4000001,
,,,-2.79999995,2.2800002,,,,,-2.79999995,1.4000001,
,,,-2.79680014,2.2800002,,,,,-2.79680014,1.3200001,
,,,-2.79360008,2.2800002,,,,,-2.79360008,1.4400001,
,,,-2.79040003,2.2800002,,,,,-2.79040003,1.3600001,
,,,-2.78719997,2.2400002,,,,,-2.78719997,1.3600001,
,,,-2.78399992,2.2400002,,,,,-2.78399992,1.4000001,
,,,-2.78080010,2.2400002,,,,,-2.78080010,1.3200001,
,,,-2.77760005,2.2000000,,,,,-2.77760005,1.4000001,
,,,-2.77440000,2.2400002,,,,,-2.77440000,1.4000001,
,,,-2.77119994,2.2000000,,,,,-2.77119994,1.4000001,
,,,-2.76800013,2.2000000,,,,,-2.76800013,1.4000001,
,,,-2.76480007,2.2000000,,,,,-2.76480007,1.3200001,
,,,-2.76160002,2.2000000,,,,,-2.76160002,1.4000001,
,,,-2.75839996,2.1600001,,,,,-2.75839996,1.4000001,
,,,-2.75519991,2.2000000,,,,,-2.75519991,1.4000001,
,,,-2.75200009,2.1600001,,,,,-2.75200009,1.3600001,
,,,-2.74880004,2.1600001,,,,,-2.74880004,1.3600001,
,,,-2.74559999,2.1600001,,,,,-2.74559999,1.4400001,
,,,-2.74239993,2.1600001,,,,,-2.74239993,1.4000001,
,,,-2.73920012,2.1600001,,,,,-2.73920012,1.3600001,
,,,-2.73600006,2.1200001,,,,,-2.73600006,1.4000001,
,,,-2.73280001,2.1600001,,,,,-2.73280001,1.3600001,
,,,-2.72959995,2.1200001,,,,,-2.72959995,1.4000001,
,,,-2.72640014,2.1200001,,,,,-2.72640014,1.4000001,
,,,-2.72320008,2.1200001,,,,,-2.72320008,1.4000001,
,,,-2.72000003,2.1200001,,,,,-2.72000003,1.3600001,
,,,-2.7168000,2.1200001,,,,,-2.7168000,1.3600001,
,,,-2.7135999,2.1200001,,,,,-2.7135999,1.3200001,
,,,-2.7104001,2.0800002,,,,,-2.7104001,1.3200001,
,,,-2.7072001,2.0800002,,,,,-2.7072001,1.4000001,
,,,-2.7040000,2.0800002,,,,,-2.7040000,1.4000001,
,,,-2.7007999,2.0400002,,,,,-2.7007999,1.4000001,
,,,-2.6976001,2.0800002,,,,,-2.6976001,1.3600001,
,,,-2.6944001,2.0800002,,,,,-2.6944001,1.4000001,
,,,-2.6912000,2.0800002,,,,,-2.6912000,1.3600001,
,,,-2.6880000,2.0400002,,,,,-2.6880000,1.3600001,
,,,-2.6847999,2.0400002,,,,,-2.6847999,1.4000001,
,,,-2.6816001,2.0400002,,,,,-2.6816001,1.3600001,
,,,-2.6784000,2.0000002,,,,,-2.6784000,1.3600001,
,,,-2.6752000,2.0400002,,,,,-2.6752000,1.3600001,
,,,-2.6719999,2.0000002,,,,,-2.6719999,1.3600001,
,,,-2.6688001,2.0000002,,,,,-2.6688001,1.2800001,
,,,-2.6656001,2.0000002,,,,,-2.6656001,1.3600001,
,,,-2.6624000,2.0000002,,,,,-2.6624000,1.4000001,
,,,-2.6592000,2.0000002,,,,,-2.6592000,1.4000001,
,,,-2.6560001,2.0000002,,,,,-2.6560001,1.3600001,
,,,-2.6528001,1.9600002,,,,,-2.6528001,1.3600001,
,,,-2.6496000,1.9600002,,,,,-2.6496000,1.3600001,
,,,-2.6464000,1.9600002,,,,,-2.6464000,1.3200001,
,,,-2.6431999,1.9600002,,,,,-2.6431999,1.3600001,
,,,-2.6400001,1.9600002,,,,,-2.6400001,1.3600001,
,,,-2.6368001,1.9600002,,,,,-2.6368001,1.4000001,
,,,-2.6336000,1.9200001,,,,,-2.6336000,1.3600001,
,,,-2.6303999,1.9600002,,,,,-2.6303999,1.3200001,
,,,-2.6272001,1.9200001,,,,,-2.6272001,1.3600001,
,,,-2.6240001,1.9200001,,,,,-2.6240001,1.3600001,
,,,-2.6208000,1.9200001,,,,,-2.6208000,1.4000001,
,,,-2.6176000,1.9200001,,,,,-2.6176000,1.4000001,
,,,-2.6143999,1.8800001,,,,,-2.6143999,1.4000001,
,,,-2.6112001,1.8800001,,,,,-2.6112001,1.3600001,
,,,-2.6080000,1.8800001,,,,,-2.6080000,1.3600001,
,,,-2.6048000,1.8800001,,,,,-2.6048000,1.3600001,
,,,-2.6015999,1.8800001,,,,,-2.6015999,1.3600001,
,,,-2.5984001,1.8400002,,,,,-2.5984001,1.3600001,
,,,-2.5952001,1.8400002,,,,,-2.5952001,1.3600001,
,,,-2.5920000,1.8400002,,,,,-2.5920000,1.4000001,
,,,-2.5888000,1.8000001,,,,,-2.5888000,1.4000001,
,,,-2.5855999,1.8400002,,,,,-2.5855999,1.4000001,
,,,-2.5824001,1.8400002,,,,,-2.5824001,1.3600001,
,,,-2.5792000,1.8000001,,,,,-2.5792000,1.3600001,
,,,-2.5760000,1.8000001,,,,,-2.5760000,1.4000001,
,,,-2.5727999,1.8000001,,,,,-2.5727999,1.4000001,
,,,-2.5696001,1.8000001,,,,,-2.5696001,1.4000001,
,,,-2.5664001,1.7600001,,,,,-2.5664001,1.4000001,
,,,-2.5632000,1.7600001,,,,,-2.5632000,1.4000001,
,,,-2.5599999,1.7200001,,,,,-2.5599999,1.3600001,
,,,-2.5568001,1.7600001,,,,,-2.5568001,1.4000001,
,,,-2.5536001,1.7600001,,,,,-2.5536001,1.3600001,
,,,-2.5504000,1.7200001,,,,,-2.5504000,1.4000001,
,,,-2.5472000,1.7200001,,,,,-2.5472000,1.3600001,
,,,-2.5439999,1.7200001,,,,,-2.5439999,1.3600001,
,,,-2.5408001,1.7200001,,,,,-2.5408001,1.4400001,
,,,-2.5376000,1.6800001,,,,,-2.5376000,1.3600001,
,,,-2.5344000,1.6800001,,,,,-2.5344000,1.4000001,
,,,-2.5311999,1.6800001,,,,,-2.5311999,1.3600001,
,,,-2.5280001,1.6800001,,,,,-2.5280001,1.4400001,
,,,-2.5248001,1.6400001,,,,,-2.5248001,1.3600001,
,,,-2.5216000,1.6400001,,,,,-2.5216000,1.4400001,
,,,-2.5184000,1.6400001,,,,,-2.5184000,1.3600001,
,,,-2.5151999,1.6400001,,,,,-2.5151999,1.3600001,
,,,-2.5120001,1.6000001,,,,,-2.5120001,1.3600001,
,,,-2.5088000,1.6000001,,,,,-2.5088000,1.3600001,
,,,-2.5056000,1.6000001,,,,,-2.5056000,1.3600001,
,,,-2.5023999,1.6000001,,,,,-2.5023999,1.3600001,
,,,-2.4992001,1.6000001,,,,,-2.4992001,1.4000001,
,,,-2.4960001,1.6000001,,,,,-2.4960001,1.3600001,
,,,-2.4928000,1.6000001,,,,,-2.4928000,1.4400001,
,,,-2.4895999,1.6000001,,,,,-2.4895999,1.3600001,
,,,-2.4864001,1.5600001,,,,,-2.4864001,1.4000001,
,,,-2.4832001,1.5600001,,,,,-2.4832001,1.3200001,
,,,-2.4800000,1.5600001,,,,,-2.4800000,1.3600001,
,,,-2.4768000,1.5200001,,,,,-2.4768000,1.4000001,
,,,-2.4735999,1.5200001,,,,,-2.4735999,1.3600001,
,,,-2.4704001,1.5200001,,,,,-2.4704001,1.3600001,
,,,-2.4672000,1.5200001,,,,,-2.4672000,1.3600001,
,,,-2.4640000,1.5200001,,,,,-2.4640000,1.4000001,
,,,-2.4607999,1.4800001,,,,,-2.4607999,1.3600001,
,,,-2.4576001,1.5200001,,,,,-2.4576001,1.4400001,
,,,-2.4544001,1.4800001,,,,,-2.4544001,1.4000001,
,,,-2.4512000,1.4800001,,,,,-2.4512000,1.4000001,
,,,-2.4480000,1.4800001,,,,,-2.4480000,1.3200001,
,,,-2.4447999,1.4800001,,,,,-2.4447999,1.3600001,
,,,-2.4416001,1.4800001,,,,,-2.4416001,1.4000001,
,,,-2.4384000,1.4400001,,,,,-2.4384000,1.3600001,
,,,-2.4352000,1.4400001,,,,,-2.4352000,1.4400001,
,,,-2.4319999,1.4400001,,,,,-2.4319999,1.3600001,
,,,-2.4288001,1.4400001,,,,,-2.4288001,1.4000001,
,,,-2.4256001,1.4000001,,,,,-2.4256001,1.3600001,
,,,-2.4224000,1.4000001,,,,,-2.4224000,1.3600001,
,,,-2.4191999,1.4000001,,,,,-2.4191999,1.3600001,
,,,-2.4160001,1.3600001,,,,,-2.4160001,1.3600001,
,,,-2.4128001,1.4000001,,,,,-2.4128001,1.4000001,
,,,-2.4096000,1.4000001,,,,,-2.4096000,1.3600001,
,,,-2.4064000,1.3600001,,,,,-2.4064000,1.4000001,
,,,-2.4031999,1.3600001,,,,,-2.4031999,1.3600001,
,,,-2.4000001,1.3600001,,,,,-2.4000001,1.4000001,
,,,-2.3968000,1.3600001,,,,,-2.3968000,1.3600001,
,,,-2.3936000,1.3200001,,,,,-2.3936000,1.3600001,
,,,-2.3903999,1.3200001,,,,,-2.3903999,1.4000001,
,,,-2.3872001,1.3200001,,,,,-2.3872001,1.4000001,
,,,-2.3840001,1.3200001,,,,,-2.3840001,1.4400001,
,,,-2.3808000,1.2800001,,,,,-2.3808000,1.3600001,
,,,-2.3776000,1.2800001,,,,,-2.3776000,1.4400001,
,,,-2.3743999,1.2800001,,,,,-2.3743999,1.4000001,
,,,-2.3712001,1.2800001,,,,,-2.3712001,1.3600001,
,,,-2.3680000,1.2800001,,,,,-2.3680000,1.3600001,
,,,-2.3648000,1.2800001,,,,,-2.3648000,1.4000001,
,,,-2.3615999,1.2400001,,,,,-2.3615999,1.4400001,
,,,-2.3584001,1.2400001,,,,,-2.3584001,1.3600001,
,,,-2.3552001,1.2000000,,,,,-2.3552001,1.4000001,
,,,-2.3520000,1.2000000,,,,,-2.3520000,1.4000001,
,,,-2.3487999,1.2400001,,,,,-2.3487999,1.4000001,
,,,-2.3455999,1.2000000,,,,,-2.3455999,1.3200001,
,,,-2.3424001,1.2000000,,,,,-2.3424001,1.4400001,
,,,-2.3392000,1.2000000,,,,,-2.3392000,1.3600001,
,,,-2.3360000,1.2000000,,,,,-2.3360000,1.4000001,
,,,-2.3327999,1.1600001,,,,,-2.3327999,1.4000001,
,,,-2.3296001,1.1600001,,,,,-2.3296001,1.4000001,
,,,-2.3264000,1.1600001,,,,,-2.3264000,1.4000001,
,,,-2.3232000,1.1200001,,,,,-2.3232000,1.3200001,
,,,-2.3199999,1.1200001,,,,,-2.3199999,1.4000001,
,,,-2.3168001,1.1600001,,,,,-2.3168001,1.4000001,
,,,-2.3136001,1.1200001,,,,,-2.3136001,1.3200001,
,,,-2.3104000,1.1200001,,,,,-2.3104000,1.3600001,
,,,-2.3072000,1.0800000,,,,,-2.3072000,1.3600001,
,,,-2.3039999,1.0800000,,,,,-2.3039999,1.4000001,
,,,-2.3008001,1.0800000,,,,,-2.3008001,1.4000001,
,,,-2.2976000,1.0800000,,,,,-2.2976000,1.4000001,
,,,-2.2944000,1.0800000,,,,,-2.2944000,1.3600001,
,,,-2.2911999,1.0400001,,,,,-2.2911999,1.4400001,
,,,-2.2880001,1.0400001,,,,,-2.2880001,1.3600001,
,,,-2.2848001,1.0400001,,,,,-2.2848001,1.4000001,
,,,-2.2816000,1.0400001,,,,,-2.2816000,1.4000001,
,,,-2.2783999,1.0400001,,,,,-2.2783999,1.4000001,
,,,-2.2751999,1.0400001,,,,,-2.2751999,1.3600001,
,,,-2.2720001,1.0000001,,,,,-2.2720001,1.4000001,
,,,-2.2688000,1.0000001,,,,,-2.2688000,1.4000001,
,,,-2.2656000,960.000038147E-3,,,,,-2.2656000,1.3200001,
,,,-2.2623999,960.000038147E-3,,,,,-2.2623999,1.3600001,
,,,-2.2592001,960.000038147E-3,,,,,-2.2592001,1.4000001,
,,,-2.2560000,960.000038147E-3,,,,,-2.2560000,1.4400001,
,,,-2.2528000,960.000038147E-3,,,,,-2.2528000,1.3200001,
,,,-2.2495999,920.000076294E-3,,,,,-2.2495999,1.3200001,
,,,-2.2464001,960.000038147E-3,,,,,-2.2464001,1.4000001,
,,,-2.2432001,920.000076294E-3,,,,,-2.2432001,1.3600001,
,,,-2.2400000,920.000076294E-3,,,,,-2.2400000,1.4000001,
,,,-2.2368000,880.000054836E-3,,,,,-2.2368000,1.4000001,
,,,-2.2335999,880.000054836E-3,,,,,-2.2335999,1.3600001,
,,,-2.2304001,920.000076294E-3,,,,,-2.2304001,1.3600001,
,,,-2.2272000,880.000054836E-3,,,,,-2.2272000,1.4400001,
,,,-2.2240000,840.000033379E-3,,,,,-2.2240000,1.4800001,
,,,-2.2207999,840.000033379E-3,,,,,-2.2207999,1.3600001,
,,,-2.2176001,840.000033379E-3,,,,,-2.2176001,1.3600001,
,,,-2.2144001,840.000033379E-3,,,,,-2.2144001,1.3600001,
,,,-2.2112000,800.000071526E-3,,,,,-2.2112000,1.3600001,
,,,-2.2079999,800.000071526E-3,,,,,-2.2079999,1.3200001,
,,,-2.2047999,800.000071526E-3,,,,,-2.2047999,1.3600001,
,,,-2.2016001,800.000071526E-3,,,,,-2.2016001,1.3600001,
,,,-2.1984000,800.000071526E-3,,,,,-2.1984000,1.3600001,
,,,-2.1952000,800.000071526E-3,,,,,-2.1952000,1.3600001,
,,,-2.1919999,760.000050068E-3,,,,,-2.1919999,1.3600001,
,,,-2.1888001,760.000050068E-3,,,,,-2.1888001,1.3600001,
,,,-2.1856000,760.000050068E-3,,,,,-2.1856000,1.4000001,
,,,-2.1824000,720.000028610E-3,,,,,-2.1824000,1.3600001,
,,,-2.1791999,760.000050068E-3,,,,,-2.1791999,1.4400001,
,,,-2.1760001,720.000028610E-3,,,,,-2.1760001,1.4000001,
,,,-2.1728001,720.000028610E-3,,,,,-2.1728001,1.3600001,
,,,-2.1696000,720.000028610E-3,,,,,-2.1696000,1.3600001,
,,,-2.1664000,680.000066757E-3,,,,,-2.1664000,1.4400001,
,,,-2.1631999,680.000066757E-3,,,,,-2.1631999,1.4000001,
,,,-2.1600001,680.000066757E-3,,,,,-2.1600001,1.3200001,
,,,-2.1568000,680.000066757E-3,,,,,-2.1568000,1.3200001,
,,,-2.1536000,680.000066757E-3,,,,,-2.1536000,1.3600001,
,,,-2.1503999,640.000045300E-3,,,,,-2.1503999,1.4000001,
,,,-2.1472001,680.000066757E-3,,,,,-2.1472001,1.3600001,
,,,-2.1440001,640.000045300E-3,,,,,-2.1440001,1.4000001,
,,,-2.1408000,640.000045300E-3,,,,,-2.1408000,1.5200001,
,,,-2.1375999,600.000023842E-3,,,,,-2.1375999,1.3600001,
,,,-2.1343999,600.000023842E-3,,,,,-2.1343999,1.3600001,
,,,-2.1312001,600.000023842E-3,,,,,-2.1312001,1.4000001,
,,,-2.1280000,640.000045300E-3,,,,,-2.1280000,1.4800001,
,,,-2.1248000,600.000023842E-3,,,,,-2.1248000,1.3200001,
,,,-2.1215999,600.000023842E-3,,,,,-2.1215999,1.4000001,
,,,-2.1184001,560.000061989E-3,,,,,-2.1184001,1.3600001,
,,,-2.1152000,560.000061989E-3,,,,,-2.1152000,1.3600001,
,,,-2.1120000,560.000061989E-3,,,,,-2.1120000,1.4000001,
,,,-2.1087999,560.000061989E-3,,,,,-2.1087999,1.3600001,
,,,-2.1055999,560.000061989E-3,,,,,-2.1055999,1.4000001,
,,,-2.1024001,560.000061989E-3,,,,,-2.1024001,1.3600001,
,,,-2.0992000,520.000040531E-3,,,,,-2.0992000,1.4000001,
,,,-2.0960000,520.000040531E-3,,,,,-2.0960000,1.3600001,
,,,-2.0927999,520.000040531E-3,,,,,-2.0927999,1.4000001,
,,,-2.0896001,480.000019073E-3,,,,,-2.0896001,1.4400001,
,,,-2.0864000,480.000019073E-3,,,,,-2.0864000,1.4400001,
,,,-2.0832000,520.000040531E-3,,,,,-2.0832000,1.3600001,
,,,-2.0799999,480.000019073E-3,,,,,-2.0799999,1.3600001,
,,,-2.0768001,480.000019073E-3,,,,,-2.0768001,1.3600001,
,,,-2.0736001,480.000019073E-3,,,,,-2.0736001,1.3600001,
,,,-2.0704000,440.000027418E-3,,,,,-2.0704000,1.4000001,
,,,-2.0671999,440.000027418E-3,,,,,-2.0671999,1.3600001,
,,,-2.0639999,440.000027418E-3,,,,,-2.0639999,1.4400001,
,,,-2.0608001,440.000027418E-3,,,,,-2.0608001,1.4400001,
,,,-2.0576000,400.00003576E-3,,,,,-2.0576000,1.4400001,
,,,-2.0544000,400.00003576E-3,,,,,-2.0544000,1.4000001,
,,,-2.0511999,400.00003576E-3,,,,,-2.0511999,1.3600001,
,,,-2.0480001,400.00003576E-3,,,,,-2.0480001,1.4000001,
,,,-2.0448000,400.00003576E-3,,,,,-2.0448000,1.3600001,
,,,-2.0416000,400.00003576E-3,,,,,-2.0416000,1.4000001,
,,,-2.0383999,360.00001431E-3,,,,,-2.0383999,1.4400001,
,,,-2.0351999,360.00001431E-3,,,,,-2.0351999,1.3600001,
,,,-2.0320001,360.00001431E-3,,,,,-2.0320001,1.3200001,
,,,-2.0288000,360.00001431E-3,,,,,-2.0288000,1.3600001,
,,,-2.0256000,320.00002265E-3,,,,,-2.0256000,1.3600001,
,,,-2.0223999,320.00002265E-3,,,,,-2.0223999,1.3600001,
,,,-2.0192001,320.00002265E-3,,,,,-2.0192001,1.3600001,
,,,-2.0160000,320.00002265E-3,,,,,-2.0160000,1.3600001,
